Decision Trees - CART
…
\[\\[1in]\] # 1. Árboles de decisión

Objetivo

En este módulo estudiaremos el uso de árboles de decisión para problemas de regresión y clasificación como modelo predictivo de Machine Learning.

Data

Los datos provienen del artículo “Social Pressure and Voter Turnout: Evidence from a Large-Scale Field Experiment” de Gerber, Green y Larimer (2008) (Ver el artículo). El artículo trata sobre un estudio de campo en el que los votantes registrados en los EE. UU. fueron seleccionados al azar y recibieron cartas motivándolos a votar. Como el papel electoral en Estados Unidos es público y se puede consultar quién votó, los investigadores pudieron analizar el efecto de las cartas en la participación de los votantes. Los datos contienen variables relativas al tratamiento (\(W\)), respuesta (\(Y\)) y características observables de los votantes (\(X\)).

En la base, mostrada a continuación, \(Y\) es la variable de resultado (votar o no votar) en la elección general del año 2004, \(W\) es la variable de tratamiento (carta recibida) y el resto de las variables son covariables \(X\), principalmente sobre el comportamiento de voto en elecciones anteriores.

A continuación vemos una vista previa de la base de datos:

## # A tibble: 40,000 × 16
##      ...1     X1     id cluster  hh_id hh_size     Y     W sex     yob g2000
##     <dbl>  <dbl>  <dbl>   <dbl>  <dbl>   <dbl> <dbl> <dbl> <fct> <dbl> <fct>
##  1 207512 207512 207512    6036 108633       2     0     0 1      1986 0    
##  2  98909  98909  98909    2848  51252       1     0     0 0      1961 1    
##  3 195936 195936 195936    5688 102384       1     1     0 1      1951 1    
##  4 327755 327755 327755    9501 171008       1     1     1 0      1950 1    
##  5  62368  62368  62368    1798  32358       2     1     1 0      1963 1    
##  6  25548  25548  25548     750  13493       2     0     0 1      1957 0    
##  7 232264 232264 232264    6766 121780       2     0     0 0      1948 1    
##  8  97292  97292  97292    2802  50420       3     0     1 0      1984 0    
##  9 131465 131465 131465    3793  68266       1     1     0 0      1931 1    
## 10 124791 124791 124791    3597  64740       1     1     1 0      1934 1    
## # … with 39,990 more rows, and 5 more variables: g2002 <fct>, p2000 <fct>,
## #   p2002 <fct>, p2004 <fct>, p2004_mean <dbl>
…
